%YAML 1.1
%TAG !u! tag:unity3d.com,2011:
--- !u!1001 &8063400888912104646
PrefabInstance:
  m_ObjectHideFlags: 0
  serializedVersion: 2
  m_Modification:
    m_TransformParent: {fileID: 0}
    m_Modifications:
    - target: {fileID: 1271463073934860, guid: c8241c5696cbec14bae8a38a0489c6ef, type: 3}
      propertyPath: m_Name
      value: tree_i (2)
      objectReference: {fileID: 0}
    - target: {fileID: 4405990418711390, guid: c8241c5696cbec14bae8a38a0489c6ef, type: 3}
      propertyPath: m_LocalPosition.x
      value: 12.5
      objectReference: {fileID: 0}
    - target: {fileID: 4405990418711390, guid: c8241c5696cbec14bae8a38a0489c6ef, type: 3}
      propertyPath: m_LocalPosition.y
      value: 129.59
      objectReference: {fileID: 0}
    - target: {fileID: 4405990418711390, guid: c8241c5696cbec14bae8a38a0489c6ef, type: 3}
      propertyPath: m_LocalPosition.z
      value: 125.71417
      objectReference: {fileID: 0}
    - target: {fileID: 4405990418711390, guid: c8241c5696cbec14bae8a38a0489c6ef, type: 3}
      propertyPath: m_LocalRotation.x
      value: -0
      objectReference: {fileID: 0}
    - target: {fileID: 4405990418711390, guid: c8241c5696cbec14bae8a38a0489c6ef, type: 3}
      propertyPath: m_LocalRotation.y
      value: -0
      objectReference: {fileID: 0}
    - target: {fileID: 4405990418711390, guid: c8241c5696cbec14bae8a38a0489c6ef, type: 3}
      propertyPath: m_LocalRotation.z
      value: -0
      objectReference: {fileID: 0}
    - target: {fileID: 4405990418711390, guid: c8241c5696cbec14bae8a38a0489c6ef, type: 3}
      propertyPath: m_LocalRotation.w
      value: 1
      objectReference: {fileID: 0}
    - target: {fileID: 4405990418711390, guid: c8241c5696cbec14bae8a38a0489c6ef, type: 3}
      propertyPath: m_RootOrder
      value: 0
      objectReference: {fileID: 0}
    - target: {fileID: 4405990418711390, guid: c8241c5696cbec14bae8a38a0489c6ef, type: 3}
      propertyPath: m_LocalEulerAnglesHint.x
      value: 0
      objectReference: {fileID: 0}
    - target: {fileID: 4405990418711390, guid: c8241c5696cbec14bae8a38a0489c6ef, type: 3}
      propertyPath: m_LocalEulerAnglesHint.y
      value: 0
      objectReference: {fileID: 0}
    - target: {fileID: 4405990418711390, guid: c8241c5696cbec14bae8a38a0489c6ef, type: 3}
      propertyPath: m_LocalEulerAnglesHint.z
      value: 0
      objectReference: {fileID: 0}
    m_RemovedComponents: []
  m_SourcePrefab: {fileID: 100100000, guid: c8241c5696cbec14bae8a38a0489c6ef, type: 3}
